ITC4005;
R;10;ohm;200W;
Idc;100;mA;
Vmodul;100;mVpK;
Frequency (Hz);r (Vrms)
5000;0.355391052
5986.622074;0.357117474
6973.244147;0.355297308
7959.866221;0.352782452
8946.488294;0.350396135
9933.110368;0.347475008
10919.73244;0.344317657
11906.35452;0.34111554
12892.97659;0.337411944
13879.59866;0.333757581
14866.22074;0.32973446
15852.84281;0.326004027
16839.46488;0.321701092
17826.08696;0.317341827
18812.70903;0.313273808
19799.3311;0.308780812
20785.95318;0.304571718
21772.57525;0.299887996
22759.19732;0.2954687
23745.8194;0.291366957
24732.44147;0.28694965
25719.06355;0.282526947
26705.68562;0.278225374
27692.30769;0.273919967
28678.92977;0.269549664
29665.55184;0.265290129
30652.17391;0.261256912
31638.79599;0.257149617
32625.41806;0.252980536
33612.04013;0.248963425
34598.66221;0.245038097
35585.28428;0.24106361
36571.90635;0.237317754
37558.52843;0.233550006
38545.1505;0.23011784
39531.77258;0.226394852
40518.39465;0.222811783
41505.01672;0.219143714
42491.6388;0.215879141
43478.26087;0.212664135
44464.88294;0.209556436
45451.50502;0.206545343
46438.12709;0.203282803
47424.74916;0.200169336
48411.37124;0.197063018
49397.99331;0.194129242
50384.61538;0.191205708
51371.23746;0.188547229
52357.85953;0.185623681
53344.48161;0.18307203
54331.10368;0.180565253
55317.72575;0.178079575
56304.34783;0.175768167
57290.9699;0.173267328
58277.59197;0.170872654
59264.21405;0.168559726
60250.83612;0.166300133
61237.45819;0.163850438
62224.08027;0.161556053
63210.70234;0.159489957
64197.32441;0.15753199
65183.94649;0.155413633
66170.56856;0.1531844
67157.19064;0.151383
68143.81271;0.149453929
69130.43478;0.147562171
70117.05686;0.145739019
71103.67893;0.143809799
72090.301;0.142086274
73076.92308;0.14036936
74063.54515;0.138624601
75050.16722;0.136983392
76036.7893;0.135310811
77023.41137;0.133543834
78010.03344;0.131961444
78996.65552;0.130460092
79983.27759;0.128852292
80969.89967;0.127357115
81956.52174;0.125878216
82943.14381;0.124433285
83929.76589;0.123021323
84916.38796;0.121625719
85903.01003;0.120239442
86889.63211;0.118853046
87876.25418;0.117515037
88862.87625;0.116222939
89849.49833;0.115001526
90836.1204;0.113739492
91822.74247;0.11250907
92809.36455;0.111294452
93795.98662;0.110013474
94782.6087;0.108944575
95769.23077;0.107761631
96755.85284;0.106559465
97742.47492;0.105517251
98729.09699;0.104383532
99715.71906;0.103293829
100702.3411;0.102229737
101688.9632;0.101169598
102675.5853;0.100123697
103662.2074;0.099133316
104648.8294;0.098146736
105635.4515;0.097156304
106622.0736;0.096129576
107608.6957;0.095106952
108595.3177;0.094160577
109581.9398;0.093271452
110568.5619;0.092377741
111555.1839;0.091449445
112541.806;0.090568641
113528.4281;0.089654529
114515.0502;0.088841165
115501.6722;0.08801654
116488.2943;0.087208777
117474.9164;0.086361923
118461.5385;0.085583431
119448.1605;0.08475577
120434.7826;0.083939549
121421.4047;0.083124843
122408.0268;0.082334748
123394.6488;0.081603303
124381.2709;0.080828597
125367.893;0.080070525
126354.5151;0.079361337
127341.1371;0.07864098
128327.7592;0.077910057
129314.3813;0.077223011
130301.0033;0.076543759
131287.6254;0.07581831
132274.2475;0.075178862
133260.8696;0.074476633
134247.4916;0.074092848
135234.1137;0.073391041
136220.7358;0.072509793
137207.3579;0.071885739
138193.9799;0.071233887
139180.602;0.070609908
140167.2241;0.06998297
141153.8462;0.06934798
142140.4682;0.068749602
143127.0903;0.068157511
144113.7124;0.067598762
145100.3344;0.06698759
146086.9565;0.066419272
147073.5786;0.065834041
148060.2007;0.065293949
149046.8227;0.064737722
150033.4448;0.064203676
151020.0669;0.063654266
152006.689;0.063131167
152993.311;0.062552782
153979.9331;0.062037123
154966.5552;0.061529323
155953.1773;0.060973634
156939.7993;0.06051636
157926.4214;0.059985122
158913.0435;0.059471292
159899.6656;0.058986547
160886.2876;0.058545797
161872.9097;0.058056644
162859.5318;0.057565751
163846.1538;0.057079094
164832.7759;0.056595965
165819.398;0.056143593
166806.0201;0.055686766
167792.6421;0.055254694
168779.2642;0.05479233
169765.8863;0.054362412
170752.5084;0.053922399
171739.1304;0.053456176
172725.7525;0.053030115
173712.3746;0.052616403
174698.9967;0.052179588
175685.6187;0.051766438
176672.2408;0.051311898
177658.8629;0.050936847
178645.4849;0.050548146
179632.107;0.050137023
180618.7291;0.049721297
181605.3512;0.049334013
182591.9732;0.048991082
183578.5953;0.048585124
184565.2174;0.048172439
185551.8395;0.047810817
186538.4615;0.047438955
187525.0836;0.047073329
188511.7057;0.046677961
189498.3278;0.046315279
190484.9498;0.045978465
191471.5719;0.045595593
192458.194;0.045228306
193444.8161;0.044883502
194431.4381;0.044536931
195418.0602;0.0441891
196404.6823;0.043844521
197391.3043;0.043520137
198377.9264;0.043185621
199364.5485;0.042837978
200351.1706;0.042504348
201337.7926;0.042179585
202324.4147;0.041869125
203311.0368;0.04153477
204297.6589;0.041239401
205284.2809;0.04091682
206270.903;0.04061483
207257.5251;0.040297424
208244.1472;0.040015313
209230.7692;0.039687746
210217.3913;0.039387045
211204.0134;0.039078946
212190.6355;0.038802568
213177.2575;0.038503874
214163.8796;0.038204025
215150.5017;0.037908539
216137.1237;0.037632984
217123.7458;0.037321951
218110.3679;0.037053086
219096.99;0.03677002
220083.612;0.036494586
221070.2341;0.036229246
222056.8562;0.035968768
223043.4783;0.035693415
224030.1003;0.035430905
225016.7224;0.0351631
226003.3445;0.034894339
226989.9666;0.034627143
227976.5886;0.034356552
228963.2107;0.034106275
229949.8328;0.03386459
230936.4548;0.033620356
231923.0769;0.033364594
232909.699;0.033111175
233896.3211;0.032879115
234882.9431;0.032623308
235869.5652;0.032397302
236856.1873;0.032156079
237842.8094;0.031908347
238829.4314;0.031669411
239816.0535;0.031437509
240802.6756;0.031207618
241789.2977;0.030973867
242775.9197;0.03075876
243762.5418;0.030531745
244749.1639;0.030316075
245735.786;0.030085837
246722.408;0.029865969
247709.0301;0.029654626
248695.6522;0.02943044
249682.2742;0.029216001
250668.8963;0.029019859
251655.5184;0.028806186
252642.1405;0.028591407
253628.7625;0.028377014
254615.3846;0.028173719
255602.0067;0.027971451
256588.6288;0.027767988
257575.2508;0.027566593
258561.8729;0.027366773
259548.495;0.027169691
260535.1171;0.026981943
261521.7391;0.026774583
262508.3612;0.026582875
263494.9833;0.026397023
264481.6054;0.026197003
265468.2274;0.026021806
266454.8495;0.025830726
267441.4716;0.025650543
268428.0936;0.025463101
269414.7157;0.025271204
270401.3378;0.025087555
271387.9599;0.024916996
272374.5819;0.024729794
273361.204;0.024555281
274347.8261;0.024387178
275334.4482;0.02421251
276321.0702;0.024042671
277307.6923;0.023855466
278294.3144;0.023696078
279280.9365;0.023537686
280267.5585;0.023348884
281254.1806;0.023187063
282240.8027;0.023026061
283227.4247;0.022859575
284214.0468;0.022695649
285200.6689;0.022552613
286187.291;0.022396
287173.913;0.022238817
288160.5351;0.022067683
289147.1572;0.021909206
290133.7793;0.021760329
291120.4013;0.021597258
292107.0234;0.021450907
293093.6455;0.021303036
294080.2676;0.021157172
295066.8896;0.02100961
296053.5117;0.020857661
297040.1338;0.020710473
298026.7559;0.02056976
299013.3779;0.020428238
300000;0.020289184
