% Module: Sweep, ID: c0p1t8p1cfm0
% Devices: DEV4199
% Time: 2021/05/11 14:50:05
% Demod 1 Sample R,  /module/c0p1t8p1cf/sweep/dev4199/demods/0/sample.R
% Frequency (Hz); Demod 1 Sample R Amplitude (V)
1000; 0.0702739871333
1299.299299299299; 0.070280657095
1598.598598598599; 0.0702627501085
1897.897897897898; 0.0702547158101
2197.197197197197; 0.0702385923723
2496.496496496497; 0.0702055149137
2795.795795795796; 0.0701941735973
3095.095095095095; 0.0701651671624
3394.394394394395; 0.0701444571596
3693.693693693694; 0.0701161680022
3992.992992992993; 0.0700841248058
4292.292292292293; 0.0700532421865
4591.591591591592; 0.0700231060789
4890.890890890891; 0.0699809588729
5190.19019019019; 0.0699459289928
5489.48948948949; 0.069911669151
5788.788788788789; 0.0698732747356
6088.088088088089; 0.0698242442033
6387.387387387388; 0.0697788284448
6686.686686686687; 0.0697347192655
6985.985985985986; 0.0696813294478
7285.285285285286; 0.0696207189203
7584.584584584585; 0.0695782505953
7883.883883883885; 0.0695309015771
8183.183183183184; 0.0694674215169
8482.482482482483; 0.0694086916749
8781.781781781781; 0.0693548273166
9081.081081081082; 0.069287234212
9380.38038038038; 0.0692208082838
9679.679679679681; 0.0691600629887
9978.978978978979; 0.0690941658595
10278.27827827828; 0.0690238225583
10577.57757757758; 0.0689565136729
10876.87687687688; 0.068880234645
11176.17617617618; 0.0688015550528
11475.47547547548; 0.0687347483965
11774.77477477478; 0.068655926469
12074.07407407407; 0.0685784192152
12373.37337337337; 0.0685021879933
12672.67267267267; 0.0684102001574
12971.97197197197; 0.0683294133671
13271.27127127127; 0.0682443940298
13570.57057057057; 0.0681645956977
13869.86986986987; 0.0680755325766
14169.16916916917; 0.0679779236945
14468.46846846847; 0.0678848194581
14767.76776776777; 0.0677929650447
15067.06706706707; 0.0677075001171
15366.36636636637; 0.0676185597317
15665.66566566567; 0.0675151490161
15964.96496496497; 0.0674158124672
16264.26426426427; 0.0673226422744
16563.56356356356; 0.0672188009172
16862.86286286286; 0.0671192461438
17162.16216216216; 0.0670191916478
17461.46146146146; 0.0669122072923
17760.76076076076; 0.0668009803025
18060.06006006006; 0.0666895572604
18359.35935935936; 0.066584913225
18658.65865865866; 0.06649339542
18957.95795795796; 0.0663655728324
19257.25725725726; 0.0661851211224
19556.55655655656; 0.0661686460749
19855.85585585586; 0.0660385727874
20155.15515515516; 0.0659082983329
20454.45445445446; 0.0658026054639
20753.75375375375; 0.0657084725153
21053.05305305306; 0.0655718587408
21352.35235235235; 0.0654562628983
21651.65165165165; 0.0653401893173
21950.95095095095; 0.0652199887499
22250.25025025025; 0.065102612305
22549.54954954955; 0.0649764080543
22848.84884884885; 0.0648557925503
23148.14814814815; 0.0647311171023
23447.44744744745; 0.0646085664623
23746.74674674675; 0.0644816066893
24046.04604604605; 0.0643471771253
24345.34534534535; 0.0642240429687
24644.64464464465; 0.0641091494156
24943.94394394394; 0.0639770004641
25243.24324324324; 0.063844109779
25542.54254254255; 0.0637173079584
25841.84184184184; 0.0635894706567
26141.14114114114; 0.0634608998601
26440.44044044044; 0.0633170348673
26739.73973973974; 0.0631955851743
27039.03903903904; 0.0630638587411
27338.33833833834; 0.0629308558534
27637.63763763764; 0.0627986081769
27936.93693693694; 0.0626627163881
28236.23623623624; 0.0625254679608
28535.53553553554; 0.0623919959146
28834.83483483484; 0.0622457434427
29134.13413413414; 0.0621279231228
29433.43343343343; 0.061981136605
29732.73273273274; 0.0618407453363
30032.03203203204; 0.0617095452605
30331.33133133133; 0.0615677108974
30630.63063063063; 0.0614298146549
30929.92992992993; 0.0612904069228
31229.22922922923; 0.0611616164942
31528.52852852853; 0.0610222041606
31827.82782782783; 0.0608768478452
32127.12712712713; 0.0607345234046
32426.42642642643; 0.0605978593661
32725.72572572573; 0.0604573160344
33025.02502502502; 0.0603153586246
33324.32432432433; 0.0601754522678
33623.62362362363; 0.060032043314
33922.92292292292; 0.0598894015116
34222.22222222223; 0.0597528514333
34521.52152152152; 0.0596085531011
34820.82082082082; 0.0594620126205
35120.12012012013; 0.0593232839052
35419.41941941942; 0.0591810138965
35718.71871871872; 0.0590375721785
36018.01801801802; 0.0588885965175
36317.31731731732; 0.0587518131786
36616.61661661662; 0.0586054581858
36915.91591591592; 0.058463115413
37215.21521521522; 0.0583238313813
37514.51451451451; 0.0581762905434
37813.81381381382; 0.0580334772905
38113.11311311312; 0.057887840035
38412.41241241241; 0.0577668895406
38711.71171171172; 0.0576359993837
39011.01101101101; 0.0574688772083
39310.31031031031; 0.0573222855251
39609.60960960962; 0.0571727309705
39908.90890890891; 0.0570300434276
40208.20820820821; 0.0568892106846
40507.50750750751; 0.0567515292643
40806.80680680681; 0.0566055967975
41106.10610610611; 0.0564617393987
41405.40540540541; 0.056316328346
41704.70470470471; 0.0561754497898
42004.004004004; 0.0560298747747
42303.30330330331; 0.0558838696159
42602.60260260261; 0.0557485432114
42901.9019019019; 0.0556031271059
43201.20120120121; 0.0554621306453
43500.5005005005; 0.0553183902604
43799.7997997998; 0.0551777041721
44099.0990990991; 0.0550356962956
44398.3983983984; 0.0548925335341
44697.6976976977; 0.0547494119199
44996.996996997; 0.0546109872018
45296.2962962963; 0.0544712599893
45595.5955955956; 0.0543245525821
45894.8948948949; 0.0541838387997
46194.1941941942; 0.0540454572385
46493.49349349349; 0.0539028570621
46792.7927927928; 0.0537628018197
47092.0920920921; 0.0536224463795
47391.39139139139; 0.0534811261528
47690.6906906907; 0.0533671009957
47989.98998998999; 0.053201823043
48289.28928928929; 0.0530643461618
48588.58858858859; 0.0529260409233
48887.88788788789; 0.0527870656444
49187.18718718719; 0.0526463814949
49486.48648648649; 0.0525072266749
49785.78578578579; 0.0523706875819
50085.08508508509; 0.0522320184469
50384.38438438439; 0.0520902519787
50683.68368368369; 0.0519529978602
50982.98298298298; 0.0518185782859
51282.28228228229; 0.0516813959219
51581.58158158159; 0.0515479039692
51880.88088088088; 0.0514129552911
52180.18018018018; 0.0512755629265
52479.47947947948; 0.0511349120865
52778.77877877878; 0.0510044933791
53078.07807807808; 0.0508665890517
53377.37737737738; 0.050731280565
53676.67667667668; 0.0506202257263
53975.97597597598; 0.0504864967563
54275.27527527528; 0.0503285564125
54574.57457457458; 0.0501946650603
54873.87387387388; 0.0500636220504
55173.17317317318; 0.0499334330776
55472.47247247247; 0.0498002499361
55771.77177177178; 0.049664606743
56071.07107107108; 0.0495375641835
56370.37037037037; 0.0493890263976
56669.66966966967; 0.0492741410731
56968.96896896897; 0.0491424914787
57268.26826826827; 0.0490120964407
57567.56756756757; 0.0488796330174
57866.86686686687; 0.0487506969814
58166.16616616617; 0.0486259531001
58465.46546546547; 0.0484925334158
58764.76476476477; 0.0483646508404
59064.06406406407; 0.0482363334084
59363.36336336337; 0.0481105026457
59662.66266266267; 0.0479786837537
59961.96196196197; 0.0478517140197
60261.26126126126; 0.0477300116389
60560.56056056057; 0.047599471471
60859.85985985986; 0.0474712456829
61159.15915915916; 0.04734848679
61458.45845845847; 0.0472233191208
61757.75775775776; 0.0470942832111
62057.05705705706; 0.0469687894737
62356.35635635636; 0.0468441317902
62655.65565565566; 0.0467229887043
62954.95495495496; 0.0465997084126
63254.25425425426; 0.0464777259298
63553.55355355356; 0.0463554491787
63852.85285285285; 0.0462329082003
64152.15215215216; 0.0461093548566
64451.45145145146; 0.0459866160594
64750.75075075075; 0.0458644360585
65050.05005005006; 0.0457433597981
65349.34934934935; 0.0456226280054
65648.64864864865; 0.0455049750272
65947.94794794795; 0.0453851640084
66247.24724724726; 0.045263011437
66546.54654654655; 0.045146461871
66845.84584584585; 0.0450239287393
67145.14514514514; 0.044906255239
67444.44444444445; 0.0447916373766
67743.74374374375; 0.0446715802487
68043.04304304304; 0.0445553017652
68342.34234234235; 0.0444382378256
68641.64164164165; 0.0443248581965
68940.94094094094; 0.0442095908263
69240.24024024025; 0.0440918957812
69539.53953953955; 0.0439769148366
69838.83883883884; 0.0438630710046
70138.13813813814; 0.0437483512891
70437.43743743745; 0.0436328473069
70736.73673673674; 0.0435170781805
71036.03603603604; 0.0434069690155
71335.33533533535; 0.0432924605696
71634.63463463464; 0.0431845664737
71933.93393393393; 0.0430664401268
72233.23323323324; 0.0429583943436
72532.53253253254; 0.0428448830669
72831.83183183183; 0.0427348714785
73131.13113113113; 0.0426261053835
73430.43043043044; 0.0425145787816
73729.72972972973; 0.0424035688269
74029.02902902903; 0.0422940168007
74328.32832832834; 0.0421847418234
74627.62762762763; 0.0420778004304
74926.92692692693; 0.0419660041248
75226.22622622624; 0.0418605843886
75525.52552552553; 0.0417503792148
75824.82482482483; 0.0416475813085
76124.12412412412; 0.0415391187768
76423.42342342343; 0.0414315925051
76722.72272272273; 0.0413253992344
77022.02202202202; 0.0412168850427
77321.32132132133; 0.0411197587889
77620.62062062063; 0.0410085130723
77919.91991991992; 0.0409034084962
78219.21921921923; 0.0408017905652
78518.51851851853; 0.0406980318766
78817.81781781782; 0.0405949526191
79117.11711711713; 0.0404906521453
79416.41641641642; 0.0403892469973
79715.71571571572; 0.0402852978501
80015.01501501501; 0.0401844822845
80314.31431431432; 0.0400823519899
80613.61361361362; 0.0399793809656
80912.91291291291; 0.0398824776495
81212.21221221222; 0.0397775212417
81511.51151151152; 0.0396779770987
81810.81081081081; 0.0395778834169
82110.11011011012; 0.0394795023595
82409.40940940942; 0.0393798162315
82708.70870870871; 0.0392799006797
83008.00800800801; 0.0391826381566
83307.30730730732; 0.0390863815857
83606.60660660661; 0.0389866178495
83905.90590590591; 0.0388878406494
84205.20520520522; 0.0387893465311
84504.50450450451; 0.0386937105551
84803.80380380381; 0.0386016196171
85103.10310310312; 0.0385012888214
85402.40240240241; 0.0384054196974
85701.70170170171; 0.0383106305523
86001.001001001; 0.0382154880722
86300.30030030031; 0.0381237168557
86599.59959959961; 0.038026037578
86898.8988988989; 0.0379337840752
87198.19819819821; 0.0378372245122
87497.4974974975; 0.037747283511
87796.7967967968; 0.0376540217711
88096.09609609611; 0.0375637869712
88395.3953953954; 0.0374675907585
88694.6946946947; 0.037375250271
88993.99399399399; 0.0372845820103
89293.2932932933; 0.037193164911
89592.5925925926; 0.0371002121432
89891.89189189189; 0.0370125442639
90191.1911911912; 0.0369231898846
90490.4904904905; 0.0368321938524
90789.78978978979; 0.0367411299558
91089.0890890891; 0.0366521584865
91388.3883883884; 0.0365644568631
91687.68768768769; 0.0364726955433
91986.98698698699; 0.0363879149669
92286.2862862863; 0.0362971760768
92585.58558558559; 0.0362076524398
92884.88488488489; 0.0361240648019
93184.1841841842; 0.0360365357976
93483.48348348349; 0.035950165296
93782.78278278279; 0.0358638249937
94082.0820820821; 0.035775413862
94381.38138138139; 0.0356895716197
94680.68068068069; 0.0356040546652
94979.97997997998; 0.0355199730112
95279.27927927929; 0.0354334909439
95578.57857857858; 0.0353516029174
95877.87787787788; 0.0352660259366
96177.17717717719; 0.0351807954466
96476.47647647648; 0.035095729663
96775.77577577578; 0.0350137148768
97075.07507507509; 0.0349310454441
97374.37437437438; 0.0348496599229
97673.67367367368; 0.03476621977
97972.97297297297; 0.0346823986363
98272.27227227228; 0.0346014048717
98571.57157157158; 0.0345236978594
98870.87087087087; 0.0344393710935
99170.17017017018; 0.0343548616659
99469.46946946948; 0.0342751806981
99768.76876876877; 0.0341952991497
100068.0680680681; 0.0341146742939
100367.3673673674; 0.0340311558755
100666.6666666667; 0.0339540537202
100965.965965966; 0.0338757607505
101265.2652652653; 0.0337972324305
101564.5645645646; 0.0337182047214
101863.8638638639; 0.0336398619286
102163.1631631632; 0.0335624858336
102462.4624624625; 0.0334834834366
102761.7617617618; 0.0334057680606
103061.0610610611; 0.0333243294167
103360.3603603604; 0.0332491817438
103659.6596596597; 0.0331748319962
103958.958958959; 0.0330961362198
104258.2582582583; 0.0330189374671
104557.5575575576; 0.0329448727534
104856.8568568569; 0.032867520243
105156.1561561562; 0.0327926551331
105455.4554554555; 0.0327173900763
105754.7547547548; 0.0326429294496
106054.0540540541; 0.0325667143517
106353.3533533534; 0.0324913875184
106652.6526526527; 0.0324199633229
106951.951951952; 0.032341154452
107251.2512512513; 0.0322689493642
107550.5505505506; 0.0322201543915
107849.8498498499; 0.0321261194873
108149.1491491492; 0.0320461015808
108448.4484484485; 0.0319810188123
108747.7477477478; 0.0319044371106
109047.0470470471; 0.0318326026594
109346.3463463464; 0.0317601386719
109645.6456456457; 0.0316870545753
109944.9449449449; 0.0316167686078
110244.2442442443; 0.031544780009
110543.5435435436; 0.031474192564
110842.8428428428; 0.0314026561873
111142.1421421422; 0.0313302004973
111441.4414414414; 0.0312601054527
111740.7407407407; 0.0311884220823
112040.0400400401; 0.0311187409661
112339.3393393393; 0.0310543635397
112638.6386386386; 0.0309815378227
112937.9379379379; 0.0309125810701
113237.2372372372; 0.0308436102128
113536.5365365365; 0.0307758216013
113835.8358358358; 0.0307090894663
114135.1351351351; 0.0306399335453
114434.4344344344; 0.0305701740392
114733.7337337337; 0.0305023180093
115033.033033033; 0.030436775838
115332.3323323323; 0.0303669016249
115631.6316316316; 0.0303014848738
115930.9309309309; 0.030235379284
116230.2302302302; 0.030166574381
116529.5295295295; 0.0300997566284
116828.8288288288; 0.0300344716396
117128.1281281281; 0.0299678231907
117427.4274274274; 0.0299013651507
117726.7267267267; 0.0298378102406
118026.026026026; 0.0297727610825
118325.3253253253; 0.0297078901804
118624.6246246246; 0.0296439381775
118923.9239239239; 0.0295754216518
119223.2232232232; 0.0295131144808
119522.5225225225; 0.0294496339401
119821.8218218218; 0.0293854955178
120121.1211211211; 0.0293209874759
120420.4204204204; 0.029257960927
120719.7197197197; 0.0291940405307
121019.019019019; 0.0291310552025
121318.3183183183; 0.0290677140939
121617.6176176176; 0.029004547828
121916.9169169169; 0.0289420618641
122216.2162162162; 0.0288795863975
122515.5155155155; 0.0288178154101
122814.8148148148; 0.0287549379465
123114.1141141141; 0.0286937977612
123413.4134134134; 0.0286295202159
123712.7127127127; 0.0285697612812
124012.012012012; 0.0285108980989
124311.3113113113; 0.0284482997225
124610.6106106106; 0.0283883394895
124909.9099099099; 0.0283279206442
125209.2092092092; 0.0282678089394
125508.5085085085; 0.0282074060286
125807.8078078078; 0.0281470707494
126107.1071071071; 0.0280863263364
126406.4064064064; 0.0280353081736
126705.7057057057; 0.0279701679815
127005.005005005; 0.0279095734286
127304.3043043043; 0.0278500435689
127603.6036036036; 0.0277908986832
127902.9029029029; 0.0277305355256
128202.2022022022; 0.0276730866457
128501.5015015015; 0.0276169328728
128800.8008008008; 0.0275575984383
129100.1001001001; 0.0275006399502
129399.3993993994; 0.0274433355823
129698.6986986987; 0.0273848915728
129997.997997998; 0.0273277469829
130297.2972972973; 0.0272717765629
130596.5965965966; 0.0272139919234
130895.8958958959; 0.0271571208097
131195.1951951952; 0.0271007195696
131494.4944944945; 0.0270434439367
131793.7937937938; 0.0269875383462
132093.0930930931; 0.0269305601654
132392.3923923924; 0.0268748701877
132691.6916916917; 0.0268185311297
132990.990990991; 0.0267650173602
133290.2902902903; 0.026710101603
133589.5895895896; 0.0266542927091
133888.8888888889; 0.0265988307332
134188.1881881882; 0.0265445928239
134487.4874874875; 0.0264880090869
134786.7867867868; 0.0264331970563
135086.0860860861; 0.0263782732005
135385.3853853854; 0.0263259291412
135684.6846846847; 0.026269536238
135983.983983984; 0.0262162459985
136283.2832832833; 0.0261627121683
136582.5825825826; 0.0261080862083
136881.8818818819; 0.0260546648856
137181.1811811812; 0.0260035878327
137480.4804804805; 0.0259487940232
137779.7797797798; 0.0258969637877
138079.0790790791; 0.0258451398174
138378.3783783784; 0.0257924268853
138677.6776776777; 0.0257409258474
138976.976976977; 0.0256873267435
139276.2762762763; 0.0256352870193
139575.5755755756; 0.0255823663415
139874.8748748749; 0.0255315767091
140174.1741741742; 0.0254820044114
140473.4734734735; 0.0254294762588
140772.7727727728; 0.0253817665393
141072.0720720721; 0.0253265183635
141371.3713713714; 0.025275817998
141670.6706706707; 0.025226002805
141969.96996997; 0.0251731620128
142269.2692692693; 0.0251247782794
142568.5685685686; 0.025074782755
142867.8678678679; 0.0250224331366
143167.1671671672; 0.0249725491139
143466.4664664665; 0.0249223532631
143765.7657657658; 0.0248735516936
144065.0650650651; 0.0248205289924
144364.3643643644; 0.0247748028657
144663.6636636637; 0.0247235341363
144962.962962963; 0.0246736788092
145262.2622622623; 0.0246249049287
145561.5615615616; 0.0245751921245
145860.8608608609; 0.0245278497597
146160.1601601602; 0.024479780992
146459.4594594595; 0.0244314424485
146758.7587587588; 0.0243824768875
147058.0580580581; 0.0243326294656
147357.3573573574; 0.024284250272
147656.6566566567; 0.0242365822254
147955.955955956; 0.0241913642775
148255.2552552553; 0.0241421578991
148554.5545545546; 0.0240955240829
148853.8538538539; 0.0240488044319
149153.1531531532; 0.0240007241547
149452.4524524525; 0.0239541052351
149751.7517517518; 0.0239081116589
150051.0510510511; 0.0238602124901
150350.3503503504; 0.0238133510419
150649.6496496497; 0.0237671853346
150948.948948949; 0.0237204228758
151248.2482482482; 0.0236745935522
151547.5475475476; 0.0236282546718
151846.8468468469; 0.0235820939123
152146.1461461461; 0.0235358243396
152445.4454454455; 0.0234899316592
152744.7447447448; 0.0234440033079
153044.044044044; 0.0233989488489
153343.3433433434; 0.0233542564144
153642.6426426427; 0.023308228661
153941.9419419419; 0.02326454346
154241.2412412413; 0.023216451966
154540.5405405406; 0.0231760355254
154839.8398398398; 0.0231307461978
155139.1391391392; 0.0230845034554
155438.4384384385; 0.0230382617126
155737.7377377377; 0.0229955034103
156037.0370370371; 0.0229498466906
156336.3363363364; 0.0229075165933
156635.6356356356; 0.022862752538
156934.934934935; 0.022818460526
157234.2342342343; 0.022776015041
157533.5335335335; 0.02273164906
157832.8328328328; 0.0226878466602
158132.1321321321; 0.0226435118015
158431.4314314314; 0.0226009780062
158730.7307307307; 0.0225585357841
159030.03003003; 0.022513999381
159329.3293293293; 0.0224692227838
159628.6286286286; 0.0224295930372
159927.9279279279; 0.0223827531116
160227.2272272272; 0.0223424747812
160526.5265265265; 0.0223033498688
160825.8258258258; 0.0222581645082
161125.1251251251; 0.0222169824748
161424.4244244244; 0.022226344978
161723.7237237237; 0.022119929857
162023.023023023; 0.0220977637098
162322.3223223223; 0.0220554209762
162621.6216216216; 0.022000253405
162920.9209209209; 0.0219624969473
163220.2202202202; 0.0219276538249
163519.5195195195; 0.0218855674745
163818.8188188188; 0.021841780544
164118.1181181181; 0.0218007187563
164417.4174174174; 0.0217595762688
164716.7167167167; 0.0217186635719
165016.016016016; 0.0216796268875
165315.3153153153; 0.0216402416385
165614.6146146146; 0.0215958670668
165913.9139139139; 0.0215590781852
166213.2132132132; 0.021516185069
166512.5125125125; 0.0214768806228
166811.8118118118; 0.0214353905445
167111.1111111111; 0.0213947697408
167410.4104104104; 0.0213546509272
167709.7097097097; 0.0213172744808
168009.009009009; 0.0212761057582
168308.3083083083; 0.0212377450587
168607.6076076076; 0.0211970496634
168906.9069069069; 0.0211593567056
169206.2062062062; 0.0211197605097
169505.5055055055; 0.0210812537817
169804.8048048048; 0.0210419803972
170104.1041041041; 0.0210015433046
170403.4034034034; 0.0209643317268
170702.7027027027; 0.0209249449695
171002.002002002; 0.0208875925548
171301.3013013013; 0.0208465111661
171600.6006006006; 0.0208095273946
171899.8998998999; 0.0207714286389
172199.1991991992; 0.0207338047792
172498.4984984985; 0.0206944125929
172797.7977977978; 0.0206563669196
173097.0970970971; 0.0206179769079
173396.3963963964; 0.0205784880229
173695.6956956957; 0.0205429739351
173994.994994995; 0.0205053925737
174294.2942942943; 0.0204659254367
174593.5935935936; 0.0204289328342
174892.8928928929; 0.0203928331326
175192.1921921922; 0.0203555871366
175491.4914914915; 0.0203197224577
175790.7907907908; 0.0202807108343
176090.0900900901; 0.0202434668473
176389.3893893894; 0.020207141709
176688.6886886887; 0.0201698606932
176987.987987988; 0.0201337117004
177287.2872872873; 0.0200971141135
177586.5865865866; 0.0200597845703
177885.8858858859; 0.0200233268257
178185.1851851852; 0.0199873213618
178484.4844844845; 0.0199523408932
178783.7837837838; 0.0199135031633
179083.0830830831; 0.0198802726331
179382.3823823824; 0.0198432650994
179681.6816816817; 0.0198038594561
179980.980980981; 0.0197757278673
180280.2802802803; 0.0197355375331
180579.5795795796; 0.0197020945032
180878.8788788789; 0.019665682454
181178.1781781782; 0.0196303577784
181477.4774774775; 0.0195945409453
181776.7767767768; 0.0195607702985
182076.0760760761; 0.0195241923156
182375.3753753754; 0.0194917814285
182674.6746746747; 0.0194552391577
182973.973973974; 0.0194187687365
183273.2732732733; 0.0193863052801
183572.5725725726; 0.019351356639
183871.8718718719; 0.0193147536555
184171.1711711712; 0.0192804850456
184470.4704704705; 0.019246471391
184769.7697697698; 0.0192121281114
185069.0690690691; 0.0191787979342
185368.3683683684; 0.0191436865527
185667.6676676677; 0.0191108628144
185966.966966967; 0.019076728032
186266.2662662663; 0.0190411803602
186565.5655655656; 0.0190079789992
186864.8648648649; 0.018974720646
187164.1641641642; 0.0189420737075
187463.4634634635; 0.0189092280568
187762.7627627628; 0.018874795004
188062.0620620621; 0.0188404663908
188361.3613613614; 0.0188077205809
188660.6606606607; 0.0187731828523
188959.95995996; 0.0187398653214
189259.2592592593; 0.0187075700126
189558.5585585586; 0.0186747205039
189857.8578578579; 0.0186416131521
190157.1571571572; 0.0186105137615
190456.4564564565; 0.0185780523368
190755.7557557558; 0.0185363736801
191055.0550550551; 0.0185115560782
191354.3543543544; 0.0184793261949
191653.6536536537; 0.0184458019097
191952.952952953; 0.0184148102649
192252.2522522523; 0.0183818845909
192551.5515515516; 0.0183493951823
192850.8508508509; 0.0183162386876
193150.1501501502; 0.0182851478817
193449.4494494495; 0.0182512020632
193748.7487487488; 0.0182198723195
194048.0480480481; 0.0181888689933
194347.3473473474; 0.0181571522376
194646.6466466467; 0.0181245867506
194945.9459459459; 0.0180918056996
195245.2452452453; 0.0180619783923
195544.5445445446; 0.0180301059322
195843.8438438438; 0.0179985432298
196143.1431431432; 0.0179687839051
196442.4424424425; 0.0179363497453
196741.7417417417; 0.0179056137159
197041.0410410411; 0.0178739707229
197340.3403403404; 0.0178434429491
197639.6396396396; 0.0177993252742
197938.938938939; 0.017778685291
198238.2382382383; 0.0177510196804
198537.5375375375; 0.0177187246844
198836.8368368369; 0.0176889077919
199136.1361361362; 0.0176575870846
199435.4354354354; 0.0176273474323
199734.7347347348; 0.0175974798972
200034.0340340341; 0.0175675836215
200333.3333333333; 0.0175358935353
200632.6326326327; 0.0175059717912
200931.9319319319; 0.0174744381949
201231.2312312312; 0.0174455522794
201530.5305305306; 0.0174163688884
201829.8298298298; 0.0173863822144
202129.1291291291; 0.0173558671354
202428.4284284285; 0.0173269235922
202727.7277277277; 0.0172961101288
203027.027027027; 0.0172678218496
203326.3263263264; 0.017236910216
203625.6256256256; 0.0172069576007
203924.9249249249; 0.0171775677393
204224.2242242243; 0.0171482347061
204523.5235235235; 0.0171188775047
204822.8228228228; 0.0170898020719
205122.1221221221; 0.0170615019484
205421.4214214214; 0.0170312790251
205720.7207207207; 0.017002600111
206020.02002002; 0.0169726933572
206319.3193193193; 0.0169439391725
206618.6186186186; 0.0169161507392
206917.9179179179; 0.0168868899449
207217.2172172172; 0.0168589537182
207516.5165165165; 0.0168296569193
207815.8158158158; 0.0167990792958
208115.1151151151; 0.0167722733595
208414.4144144144; 0.0167436024143
208713.7137137137; 0.0167148859924
209013.013013013; 0.0166869046059
209312.3123123123; 0.0166588187243
209611.6116116116; 0.0166302463681
209910.9109109109; 0.0166015721949
210210.2102102102; 0.0165727100383
210509.5095095095; 0.0165457477728
210808.8088088088; 0.0165170181501
211108.1081081081; 0.0164894208716
211407.4074074074; 0.0164620186839
211706.7067067067; 0.016433365563
212006.006006006; 0.0164067197585
212305.3053053053; 0.0163758547762
212604.6046046046; 0.0163509545296
212903.9039039039; 0.0163236067018
213203.2032032032; 0.0162953131479
213502.5025025025; 0.0162677548214
213801.8018018018; 0.0162397088793
214101.1011011011; 0.0162112002722
214400.4004004004; 0.0161877272989
214699.6996996997; 0.016158921984
214998.998998999; 0.0161275623396
215298.2982982983; 0.0160851551778
215597.5975975976; 0.016097590535
215896.8968968969; 0.0160496039716
216196.1961961962; 0.0160211290769
216495.4954954955; 0.0160004051478
216794.7947947948; 0.0159710130554
217094.0940940941; 0.0159455301289
217393.3933933934; 0.0159148810065
217692.6926926927; 0.0158893656025
217991.991991992; 0.0158627974951
218291.2912912913; 0.0158374288265
218590.5905905906; 0.0158102212384
218889.8898898899; 0.0157839714848
219189.1891891892; 0.0157568385483
219488.4884884885; 0.0157323351065
219787.7877877878; 0.0157050283469
220087.0870870871; 0.0156806044547
220386.3863863864; 0.0156523433428
220685.6856856857; 0.0156256659207
220984.984984985; 0.0155989940062
221284.2842842843; 0.0155732637656
221583.5835835836; 0.0155472381892
221882.8828828829; 0.0155224227195
222182.1821821822; 0.0154963116465
222481.4814814815; 0.0154707162403
222780.7807807808; 0.0154447597607
223080.0800800801; 0.0154191473993
223379.3793793794; 0.0153950455574
223678.6786786787; 0.0153690701822
223977.977977978; 0.0153427114352
224277.2772772773; 0.0153192346875
224576.5765765766; 0.0152929106151
224875.8758758759; 0.0152677212771
225175.1751751752; 0.0152418109383
225474.4744744745; 0.0152177727968
225773.7737737738; 0.0151913960614
226073.0730730731; 0.0151675240685
226372.3723723724; 0.0151431766744
226671.6716716717; 0.0151167305776
226970.970970971; 0.0150926808115
227270.2702702703; 0.0150681589438
227569.5695695696; 0.0150426294444
227868.8688688689; 0.0150185549427
228168.1681681682; 0.0149933063353
228467.4674674675; 0.0149691703392
228766.7667667668; 0.014943535463
229066.0660660661; 0.0149200122959
229365.3653653654; 0.0148951349451
229664.6646646647; 0.0148707392201
229963.963963964; 0.014846632802
230263.2632632633; 0.0148218887888
230562.5625625626; 0.0147980421395
230861.8618618619; 0.014773405015
231161.1611611612; 0.0147506611345
231460.4604604605; 0.0147261325654
231759.7597597598; 0.0147012933768
232059.0590590591; 0.0146777141415
232358.3583583584; 0.0146531406004
232657.6576576577; 0.0146292384083
232956.956956957; 0.0146047144547
233256.2562562563; 0.0145837743714
233555.5555555556; 0.014551016059
233854.8548548549; 0.0145460129611
234154.1541541542; 0.0145095714764
234453.4534534535; 0.0144872420263
234752.7527527528; 0.0144626601558
235052.0520520521; 0.0144389789011
235351.3513513514; 0.0144164767072
235650.6506506507; 0.014392485023
235949.94994995; 0.0143706641398
236249.2492492493; 0.0143463753191
236548.5485485486; 0.0143228897295
236847.8478478479; 0.0142997860074
237147.1471471472; 0.0142754050708
237446.4464464465; 0.0142532953423
237745.7457457457; 0.0142321039324
238045.0450450451; 0.0142078012326
238344.3443443444; 0.0141858369231
238643.6436436436; 0.0141625396285
238942.942942943; 0.0141391682248
239242.2422422423; 0.0141151740043
239541.5415415415; 0.0140944082114
239840.8408408409; 0.014069913967
240140.1401401402; 0.0140467004129
240439.4394394394; 0.0140245116659
240738.7387387388; 0.0140024192091
241038.0380380381; 0.0139794291995
241337.3373373373; 0.0139557244547
241636.6366366367; 0.0139361205801
241935.935935936; 0.0139130416108
242235.2352352352; 0.0138900081544
242534.5345345346; 0.0138671979226
242833.8338338339; 0.0138455326083
243133.1331331331; 0.0138228905521
243432.4324324325; 0.0138016920529
243731.7317317317; 0.0137782436152
244031.031031031; 0.0137569578931
244330.3303303304; 0.0137347369786
244629.6296296296; 0.0137122349156
244928.9289289289; 0.0136906406601
245228.2282282283; 0.0136666345371
245527.5275275275; 0.0136471830096
245826.8268268268; 0.013623797107
246126.1261261262; 0.0136020247046
246425.4254254254; 0.0135821542161
246724.7247247247; 0.0135589339058
247024.0240240241; 0.0135382467905
247323.3233233233; 0.0135155239147
247622.6226226226; 0.0134942372936
247921.921921922; 0.0134736884227
248221.2212212212; 0.0134517696362
248520.5205205205; 0.0134300970554
248819.8198198199; 0.0134086602659
249119.1191191191; 0.0133882540647
249418.4184184184; 0.0133658588471
249717.7177177177; 0.013344579753
250017.017017017; 0.0133231992282
250316.3163163163; 0.0133027646804
250615.6156156156; 0.013281213545
250914.9149149149; 0.0132606390204
251214.2142142142; 0.0132412040373
251513.5135135135; 0.0132071785728
251812.8128128128; 0.0132047625015
252112.1121121121; 0.0131776648147
252411.4114114114; 0.0131547128313
252710.7107107107; 0.0131339998192
253010.01001001; 0.0131131948128
253309.3093093093; 0.0130935912923
253608.6086086086; 0.01307175439
253907.9079079079; 0.0130504801465
254207.2072072072; 0.0130296177056
254506.5065065065; 0.0130091461888
254805.8058058058; 0.0129889959978
255105.1051051051; 0.0129697635117
255404.4044044044; 0.0129480189263
255703.7037037037; 0.0129280590671
256003.003003003; 0.012906588035
256302.3023023023; 0.0128884534184
256601.6016016016; 0.0128662959692
256900.9009009009; 0.0128472958962
257200.2002002002; 0.0128274266423
257499.4994994995; 0.0128074377218
257798.7987987988; 0.0127865149956
258098.0980980981; 0.0127666359741
258397.3973973974; 0.0127454076325
258696.6966966967; 0.012725604358
258995.995995996; 0.0127066969525
259295.2952952953; 0.0126862076712
259594.5945945946; 0.0126666897477
259893.8938938939; 0.0126465662576
260193.1931931932; 0.0126239585806
260492.4924924925; 0.0126063937609
260791.7917917918; 0.012588375623
261091.0910910911; 0.0125675944108
261390.3903903904; 0.0125476692684
261689.6896896897; 0.0125278924842
261988.988988989; 0.0125078264423
262288.2882882883; 0.0124892104634
262587.5875875876; 0.0124690266425
262886.8868868869; 0.012449346614
263186.1861861862; 0.0124294215153
263485.4854854855; 0.012410360155
263784.7847847848; 0.0123912315098
264084.0840840841; 0.012371701667
264383.3833833834; 0.0123518082979
264682.6826826827; 0.0123335103343
264981.981981982; 0.0123141116327
265281.2812812813; 0.0122941600299
265580.5805805806; 0.0122755071683
265879.8798798799; 0.0122564010257
266179.1791791792; 0.0122375679579
266478.4784784785; 0.0122180510353
266777.7777777778; 0.0121992863663
267077.0770770771; 0.0121815513631
267376.3763763764; 0.0121616876743
267675.6756756757; 0.0121430222475
267974.974974975; 0.0121232726656
268274.2742742743; 0.0121049666443
268573.5735735736; 0.0120865404061
268872.8728728729; 0.0120578693944
269172.1721721722; 0.0120574263125
269471.4714714715; 0.0120287298871
269770.7707707708; 0.0120536271653
270070.0700700701; 0.0119844437004
270369.3693693694; 0.0119752129148
270668.6686686687; 0.0119546047532
270967.967967968; 0.0119370428109
271267.2672672673; 0.0119166609579
271566.5665665666; 0.0118998131322
271865.8658658659; 0.0118814217685
272165.1651651652; 0.0118624634528
272464.4644644645; 0.0118453032095
272763.7637637638; 0.0118262461594
273063.0630630631; 0.011807983969
273362.3623623624; 0.0117890087562
273661.6616616617; 0.0117725311991
273960.960960961; 0.0117541644652
274260.2602602603; 0.0117359428473
274559.5595595596; 0.0117180766309
274858.8588588589; 0.0116991707832
275158.1581581582; 0.0116809780318
275457.4574574575; 0.0116638076609
275756.7567567568; 0.0116451428492
276056.0560560561; 0.0116271442738
276355.3553553554; 0.0116097510574
276654.6546546547; 0.0115919607574
276953.953953954; 0.0115740630955
277253.2532532533; 0.0115563858294
277552.5525525525; 0.0115385883393
277851.8518518519; 0.0115203891054
278151.1511511512; 0.0115023483195
278450.4504504505; 0.01148605424
278749.7497497498; 0.0114676251458
279049.0490490491; 0.0114506757473
279348.3483483483; 0.0114324112512
279647.6476476477; 0.0114142732943
279946.946946947; 0.0113973292581
280246.2462462463; 0.0113789929344
280545.5455455456; 0.0113621308754
280844.8448448449; 0.0113459400101
281144.1441441441; 0.0113286391227
281443.4434434435; 0.0113096727198
281742.7427427428; 0.0112934237597
282042.0420420421; 0.0112758383406
282341.3413413414; 0.0112593637673
282640.6406406407; 0.0112416650764
282939.9399399399; 0.0112249732045
283239.2392392393; 0.0112070434804
283538.5385385386; 0.0111909552577
283837.8378378379; 0.0111726009466
284137.1371371372; 0.0111566148745
284436.4364364364; 0.0111387441522
284735.7357357357; 0.0111212195093
285035.035035035; 0.0111050891778
285334.3343343344; 0.0110897288511
285633.6336336337; 0.011071243573
285932.932932933; 0.0110532083148
286232.2322322322; 0.0110363701415
286531.5315315315; 0.011021149132
286830.8308308308; 0.0110040631131
287130.1301301302; 0.0109865551014
287429.4294294295; 0.0109646413324
287728.7287287288; 0.0109657512168
288028.028028028; 0.0109354357493
288327.3273273273; 0.0109220770702
288626.6266266266; 0.0109030213787
288925.925925926; 0.0108880691756
289225.2252252253; 0.0108700305458
289524.5245245245; 0.0108549971476
289823.8238238238; 0.0108380154416
290123.1231231231; 0.0108222812602
290422.4224224224; 0.0108038681193
290721.7217217218; 0.0107892526898
291021.0210210211; 0.0107721446979
291320.3203203203; 0.0107542713564
291619.6196196196; 0.0107401556349
291918.9189189189; 0.0107236443258
292218.2182182182; 0.0107082523446
292517.5175175176; 0.0106908269278
292816.8168168169; 0.0106752765843
293116.1161161161; 0.0106582645944
293415.4154154154; 0.010644086115
293714.7147147147; 0.0106278998487
294014.014014014; 0.010611640225
294313.3133133134; 0.0105943798474
294612.6126126127; 0.0105787659181
294911.9119119119; 0.0105620226995
295211.2112112112; 0.0105477726221
295510.5105105105; 0.0105312454407
295809.8098098098; 0.0105143060067
296109.1091091092; 0.0105003507905
296408.4084084084; 0.0104828902681
296707.7077077077; 0.0104675444379
297007.007007007; 0.0104514119765
297306.3063063063; 0.0104355513565
297605.6056056056; 0.0104201353873
297904.9049049049; 0.0104049270343
298204.2042042042; 0.0103882076878
298503.5035035035; 0.0103737909634
298802.8028028028; 0.0103586604
299102.1021021021; 0.0103415642544
299401.4014014014; 0.0103268345623
299700.7007007007; 0.0103119421034
300000; 0.010296394197
